…
    ## -- Column specification --------------------------------------------------------
    ## Delimiter: ","
    ## chr  (19): Title, Genre, Tags, Languages, Series or Movie, Country Availabil...
    ## dbl   (8): Hidden Gem Score, IMDb Score, Rotten Tomatoes Score, Metacritic S...
    ## dttm  (2): Release Date, Netflix Release Date

    ## 
    ## i Use `spec()` to retrieve the full column specification for this data.
    ## i Specify the column types or set `show_col_types = FALSE` to quiet this message.

``` r
project_data
```

    ## # A tibble: 9,425 x 29
    ##    Title    Genre     Tags         Languages   `Series or Movi~ `Hidden Gem Sco~
    ##    <chr>    <chr>     <chr>        <chr>       <chr>                       <dbl>
    ##  1 Lets Fi~ Crime, D~ Comedy Prog~ Swedish, S~ Series                        4.3
    ##  2 HOW TO ~ Comedy    Dramas,Come~ English     Movie                         7  
    ##  3 The Con~ Comedy, ~ Romantic Co~ Thai        Movie                         8.6
    ##  4 Gleboka~ Drama     TV Dramas,P~ Polish      Series                        8.7
    ##  5 Only a ~ Drama     Social Issu~ Swedish     Movie                         8.3
    ##  6 Snowrol~ Comedy    Sports Movi~ Swedish, E~ Movie                         5.3
    ##  7 The Inv~ Crime, D~ Thriller Mo~ English     Movie                         2  
    ##  8 The Sim~ Drama     Social Issu~ Scanian, S~ Movie                         7.8
    ##  9 To Kill~ Short, D~ Dramas,Swed~ Spanish     Movie                         8.8
    ## 10 Joker    Crime, D~ Dark Comedi~ English     Movie                         3.5
    ## # ... with 9,415 more rows, and 23 more variables: Country Availability <chr>,
    ## #   Runtime <chr>, Director <chr>, Writer <chr>, Actors <chr>,
    ## #   View Rating <chr>, IMDb Score <dbl>, Rotten Tomatoes Score <dbl>,
    ## #   Metacritic Score <dbl>, Awards Received <dbl>, Awards Nominated For <dbl>,
    ## #   Boxoffice <dbl>, Release Date <dttm>, Netflix Release Date <dttm>,
    ## #   Production House <chr>, Netflix Link <chr>, IMDb Link <chr>, Summary <chr>,
    ## #   IMDb Votes <dbl>, Image <chr>, Poster <chr>, TMDb Trailer <chr>, ...

``` r
#cleaned data without missing values and series columns
q1_cleaned_data = project_data %>% drop_na() 
q1_cleaned_data = filter(q1_cleaned_data, q1_cleaned_data$`Series or Movie`=="Movie")
q1_cleaned_data
```

    ## # A tibble: 2,118 x 29
    ##    Title                 Genre Tags  Languages `Series or Movi~ `Hidden Gem Sco~
    ##    <chr>                 <chr> <chr> <chr>     <chr>                       <dbl>
    ##  1 Joker                 Crim~ Dark~ English   Movie                         3.5
    ##  2 I                     Acti~ Dram~ English,~ Movie                         2.8
    ##  3 Harrys Daughters      Adve~ Dram~ English   Movie                         4.4
    ##  4 The Closet            Come~ Kore~ French    Movie                         3.8
    ##  5 Ordinary People       Drama Kore~ English   Movie                         4.2
    ##  6 Stand by Me           Adve~ Kore~ English   Movie                         4.1
    ##  7 Wonderstruck          Adve~ Chil~ English,~ Movie                         3.6
    ##  8 The Girl on the Train Crim~ Boll~ English,~ Movie                         2.6
    ##  9 Red                   Acti~ Dram~ English,~ Movie                         3.4
    ## 10 Burden                Drama Movi~ English   Movie                         7.8
    ## # ... with 2,108 more rows, and 23 more variables: Country Availability <chr>,
    ## #   Runtime <chr>, Director <chr>, Writer <chr>, Actors <chr>,
    ## #   View Rating <chr>, IMDb Score <dbl>, Rotten Tomatoes Score <dbl>,
    ## #   Metacritic Score <dbl>, Awards Received <dbl>, Awards Nominated For <dbl>,
    ## #   Boxoffice <dbl>, Release Date <dttm>, Netflix Release Date <dttm>,
    ## #   Production House <chr>, Netflix Link <chr>, IMDb Link <chr>, Summary <chr>,
    ## #   IMDb Votes <dbl>, Image <chr>, Poster <chr>, TMDb Trailer <chr>, ...
…
